{
    "$schema": "http://json-schema.org/draft-07/schema",
    "$id": "ambalaj/TEBF/schemas/clarity/callargs.schema.json",
    "title": "CallArgs",
    "description": "method call arguments",
    "type": "object",
    "properties": {
        "contract": {
            "description": "contract name",
            "type": "string"
        },
        "method": {
            "description": "method name",
            "type": "string"
        },
        "args": {
            "description": "arguments list",
            "type": "array"
        },
        "sender": {
            "description": "sender address",
            "type": "string"
        }
    },
    "required": [
        "contract",
        "method",
        "args",
        "sender"
    ]
}