{
    "$schema": "http://json-schema.org/draft-07/schema",
    "$id": "ambalaj/TEBF/schemas/clarity/range.schema.json",
    "title": "Range",
    "description": "Describes 1 range created by altering 1 topic's 1 parameter",
    "type": "object",
    "properties": {
        "topic": {
            "type": "string",
            "description": "the topic in question",
            "enum": [
                "setups",
                "calls"
            ]
        },
        "leafItemIndex": {
            "type": "number",
            "description": "index in Leaf's topics"
        },
        "parameterName": {
            "type": "string",
            "description": "the name of the parameter to be expanded"
        },
        "parameterIndex": {
            "type": "number",
            "description": "the index of the parameter to be expanded"
        },
        "values": {
            "type": "array",
            "description": "List of alternatives for this parameter",
            "items": {
                "type": "string"
            }
        },
        "indexes": {
            "type": "array",
            "description": "List of indexes for this parameter",
            "items": {
                "type": "number"
            }
        },
        "regex": {
            "type": "string",
            "description": "only for the brave"
        },
        "asserts": {
            "type": "array",
            "description": "List of asserts for each item in the new range",
            "items": {
                "$ref": "./assert.schema.json"
            }
        }
    },
    "required": [
        "topic",
        "leafItemIndex"
    ],
    "allOf": [
        {
            "oneOf": [
                {
                    "required": [
                        "parameterName"
                    ]
                },
                {
                    "required": [
                        "parameterIndex"
                    ]
                }
            ]
        },
        {
            "oneOf": [
                {
                    "required": [
                        "values"
                    ]
                },
                {
                    "required": [
                        "indexes"
                    ]
                },
                {
                    "required": [
                        "regex"
                    ]
                }
            ]
        }
    ]
}