{
    "$schema": "http://json-schema.org/draft-07/schema",
    "$id": "ambalaj/TEBF/schemas/clarity/setup.schema.json",
    "title": "SetupLine",
    "description": "TS line of code setting something up",
    "type": "object",
    "properties": {
        "name": {
            "type": "string",
            "description": "const name"
        },
        "type": {
            "type": "string",
            "description": "var type"
        },
        "expr": {
            "type": "string",
            "description": "TS expression, to the right"
        },
        "vars": {
            "type": "array",
            "description": "variables in this expression, in order",
            "items": {
                "type": "string"
            }
        }
    }
}